%!PS-Adobe-3.0
%%Creator: graphviz version 2.38.0 (20140413.2041)
%%Title: ev3api::LCD::clear
%%Pages: (atend)
%%BoundingBox: (atend)
%%EndComments
save
%%BeginProlog
/DotDict 200 dict def
DotDict begin

/setupLatin1 {
mark
/EncodingVector 256 array def
 EncodingVector 0

ISOLatin1Encoding 0 255 getinterval putinterval
EncodingVector 45 /hyphen put

% Set up ISO Latin 1 character encoding
/starnetISO {
        dup dup findfont dup length dict begin
        { 1 index /FID ne { def }{ pop pop } ifelse
        } forall
        /Encoding EncodingVector def
        currentdict end definefont
} def
/Times-Roman starnetISO def
/Times-Italic starnetISO def
/Times-Bold starnetISO def
/Times-BoldItalic starnetISO def
/Helvetica starnetISO def
/Helvetica-Oblique starnetISO def
/Helvetica-Bold starnetISO def
/Helvetica-BoldOblique starnetISO def
/Courier starnetISO def
/Courier-Oblique starnetISO def
/Courier-Bold starnetISO def
/Courier-BoldOblique starnetISO def
cleartomark
} bind def

%%BeginResource: procset graphviz 0 0
/coord-font-family /Times-Roman def
/default-font-family /Times-Roman def
/coordfont coord-font-family findfont 8 scalefont def

/InvScaleFactor 1.0 def
/set_scale {
       dup 1 exch div /InvScaleFactor exch def
       scale
} bind def

% styles
/solid { [] 0 setdash } bind def
/dashed { [9 InvScaleFactor mul dup ] 0 setdash } bind def
/dotted { [1 InvScaleFactor mul 6 InvScaleFactor mul] 0 setdash } bind def
/invis {/fill {newpath} def /stroke {newpath} def /show {pop newpath} def} bind def
/bold { 2 setlinewidth } bind def
/filled { } bind def
/unfilled { } bind def
/rounded { } bind def
/diagonals { } bind def
/tapered { } bind def

% hooks for setting color 
/nodecolor { sethsbcolor } bind def
/edgecolor { sethsbcolor } bind def
/graphcolor { sethsbcolor } bind def
/nopcolor {pop pop pop} bind def

/beginpage {	% i j npages
	/npages exch def
	/j exch def
	/i exch def
	/str 10 string def
	npages 1 gt {
		gsave
			coordfont setfont
			0 0 moveto
			(\() show i str cvs show (,) show j str cvs show (\)) show
		grestore
	} if
} bind def

/set_font {
	findfont exch
	scalefont setfont
} def

% draw text fitted to its expected width
/alignedtext {			% width text
	/text exch def
	/width exch def
	gsave
		width 0 gt {
			[] 0 setdash
			text stringwidth pop width exch sub text length div 0 text ashow
		} if
	grestore
} def

/boxprim {				% xcorner ycorner xsize ysize
		4 2 roll
		moveto
		2 copy
		exch 0 rlineto
		0 exch rlineto
		pop neg 0 rlineto
		closepath
} bind def

/ellipse_path {
	/ry exch def
	/rx exch def
	/y exch def
	/x exch def
	matrix currentmatrix
	newpath
	x y translate
	rx ry scale
	0 0 1 0 360 arc
	setmatrix
} bind def

/endpage { showpage } bind def
/showpage { } def

/layercolorseq
	[	% layer color sequence - darkest to lightest
		[0 0 0]
		[.2 .8 .8]
		[.4 .8 .8]
		[.6 .8 .8]
		[.8 .8 .8]
	]
def

/layerlen layercolorseq length def

/setlayer {/maxlayer exch def /curlayer exch def
	layercolorseq curlayer 1 sub layerlen mod get
	aload pop sethsbcolor
	/nodecolor {nopcolor} def
	/edgecolor {nopcolor} def
	/graphcolor {nopcolor} def
} bind def

/onlayer { curlayer ne {invis} if } def

/onlayers {
	/myupper exch def
	/mylower exch def
	curlayer mylower lt
	curlayer myupper gt
	or
	{invis} if
} def

/curlayer 0 def

%%EndResource
%%EndProlog
%%BeginSetup
14 default-font-family set_font
1 setmiterlimit
% /arrowlength 10 def
% /arrowwidth 5 def

% make sure pdfmark is harmless for PS-interpreters other than Distiller
/pdfmark where {pop} {userdict /pdfmark /cleartomark load put} ifelse
% make '<<' and '>>' safe on PS Level 1 devices
/languagelevel where {pop languagelevel}{1} ifelse
2 lt {
    userdict (<<) cvn ([) cvn load put
    userdict (>>) cvn ([) cvn load put
} if

%%EndSetup
setupLatin1
%%Page: 1 1
%%PageBoundingBox: 36 36 291 140
%%PageOrientation: Portrait
0 0 1 beginpage
gsave
36 36 255 104 boxprim clip newpath
1 1 set_scale 0 rotate 40 40 translate
% Node1
gsave
0 0 0.74902 nodecolor
newpath 0 38.5 moveto
0 57.5 lineto
95 57.5 lineto
95 38.5 lineto
closepath fill
1 setlinewidth
filled
0 0 0 nodecolor
newpath 0 38.5 moveto
0 57.5 lineto
95 57.5 lineto
95 38.5 lineto
closepath stroke
0 0 0 nodecolor
10 /Helvetica set_font
8 45.5 moveto 79 (ev3api::LCD::clear) alignedtext
grestore
% Node2
gsave
[ /Rect [ 137 76 241 96 ]
  /Border [ 0 0 0 ]
  /Action << /Subtype /URI /URI ($classev3api_1_1_l_c_d.html#af9306497394388fe97beadb540fceed9) >>
  /Subtype /Link
/ANN pdfmark
0 0 1 nodecolor
newpath 137 76.5 moveto
137 95.5 lineto
241 95.5 lineto
241 76.5 lineto
closepath fill
1 setlinewidth
filled
0 0 0 nodecolor
newpath 137 76.5 moveto
137 95.5 lineto
241 95.5 lineto
241 76.5 lineto
closepath stroke
0 0 0 nodecolor
10 /Helvetica set_font
145 83.5 moveto 88 (ev3api::LCD::fillRect) alignedtext
grestore
% Node1->Node2
gsave
1 setlinewidth
solid
0.66667 0.77647 0.43922 edgecolor
newpath 83.7 57.59 moveto
101.71 62.49 123.83 68.52 143.06 73.76 curveto
stroke
0.66667 0.77647 0.43922 edgecolor
newpath 142.24 77.16 moveto
152.81 76.41 lineto
144.08 70.41 lineto
closepath fill
1 setlinewidth
solid
0.66667 0.77647 0.43922 edgecolor
newpath 142.24 77.16 moveto
152.81 76.41 lineto
144.08 70.41 lineto
closepath stroke
grestore
% Node3
gsave
[ /Rect [ 132.5 38 245.5 58 ]
  /Border [ 0 0 0 ]
  /Action << /Subtype /URI /URI ($classev3api_1_1_l_c_d.html#a6adce1b54ceb329c32b81fd7fe8082bb) >>
  /Subtype /Link
/ANN pdfmark
0 0 1 nodecolor
newpath 132.5 38.5 moveto
132.5 57.5 lineto
245.5 57.5 lineto
245.5 38.5 lineto
closepath fill
1 setlinewidth
filled
0 0 0 nodecolor
newpath 132.5 38.5 moveto
132.5 57.5 lineto
245.5 57.5 lineto
245.5 38.5 lineto
closepath stroke
0 0 0 nodecolor
10 /Helvetica set_font
140.5 45.5 moveto 97 (ev3api::LCD::getWidth) alignedtext
grestore
% Node1->Node3
gsave
1 setlinewidth
solid
0.66667 0.77647 0.43922 edgecolor
newpath 95.34 48 moveto
103.97 48 113.12 48 122.18 48 curveto
stroke
0.66667 0.77647 0.43922 edgecolor
newpath 122.34 51.5 moveto
132.34 48 lineto
122.34 44.5 lineto
closepath fill
1 setlinewidth
solid
0.66667 0.77647 0.43922 edgecolor
newpath 122.34 51.5 moveto
132.34 48 lineto
122.34 44.5 lineto
closepath stroke
grestore
% Node4
gsave
[ /Rect [ 131 0 247 20 ]
  /Border [ 0 0 0 ]
  /Action << /Subtype /URI /URI ($classev3api_1_1_l_c_d.html#a70df3bb2b4b3e4b2acb22763aebf120e) >>
  /Subtype /Link
/ANN pdfmark
0 0 1 nodecolor
newpath 131 .5 moveto
131 19.5 lineto
247 19.5 lineto
247 .5 lineto
closepath fill
1 setlinewidth
filled
0 0 0 nodecolor
newpath 131 .5 moveto
131 19.5 lineto
247 19.5 lineto
247 .5 lineto
closepath stroke
0 0 0 nodecolor
10 /Helvetica set_font
139 7.5 moveto 100 (ev3api::LCD::getHeight) alignedtext
grestore
% Node1->Node4
gsave
1 setlinewidth
solid
0.66667 0.77647 0.43922 edgecolor
newpath 83.7 38.41 moveto
101.71 33.51 123.83 27.48 143.06 22.24 curveto
stroke
0.66667 0.77647 0.43922 edgecolor
newpath 144.08 25.59 moveto
152.81 19.59 lineto
142.24 18.84 lineto
closepath fill
1 setlinewidth
solid
0.66667 0.77647 0.43922 edgecolor
newpath 144.08 25.59 moveto
152.81 19.59 lineto
142.24 18.84 lineto
closepath stroke
grestore
endpage
showpage
grestore
%%PageTrailer
%%EndPage: 1
%%Trailer
%%Pages: 1
%%BoundingBox: 36 36 291 140
end
restore
%%EOF
