%!PS-Adobe-3.0
%%Creator: graphviz version 2.38.0 (20140413.2041)
%%Title: ev3api::Bluetooth::isConnected
%%Pages: (atend)
%%BoundingBox: (atend)
%%EndComments
save
%%BeginProlog
/DotDict 200 dict def
DotDict begin

/setupLatin1 {
mark
/EncodingVector 256 array def
 EncodingVector 0

ISOLatin1Encoding 0 255 getinterval putinterval
EncodingVector 45 /hyphen put

% Set up ISO Latin 1 character encoding
/starnetISO {
        dup dup findfont dup length dict begin
        { 1 index /FID ne { def }{ pop pop } ifelse
        } forall
        /Encoding EncodingVector def
        currentdict end definefont
} def
/Times-Roman starnetISO def
/Times-Italic starnetISO def
/Times-Bold starnetISO def
/Times-BoldItalic starnetISO def
/Helvetica starnetISO def
/Helvetica-Oblique starnetISO def
/Helvetica-Bold starnetISO def
/Helvetica-BoldOblique starnetISO def
/Courier starnetISO def
/Courier-Oblique starnetISO def
/Courier-Bold starnetISO def
/Courier-BoldOblique starnetISO def
cleartomark
} bind def

%%BeginResource: procset graphviz 0 0
/coord-font-family /Times-Roman def
/default-font-family /Times-Roman def
/coordfont coord-font-family findfont 8 scalefont def

/InvScaleFactor 1.0 def
/set_scale {
       dup 1 exch div /InvScaleFactor exch def
       scale
} bind def

% styles
/solid { [] 0 setdash } bind def
/dashed { [9 InvScaleFactor mul dup ] 0 setdash } bind def
/dotted { [1 InvScaleFactor mul 6 InvScaleFactor mul] 0 setdash } bind def
/invis {/fill {newpath} def /stroke {newpath} def /show {pop newpath} def} bind def
/bold { 2 setlinewidth } bind def
/filled { } bind def
/unfilled { } bind def
/rounded { } bind def
/diagonals { } bind def
/tapered { } bind def

% hooks for setting color 
/nodecolor { sethsbcolor } bind def
/edgecolor { sethsbcolor } bind def
/graphcolor { sethsbcolor } bind def
/nopcolor {pop pop pop} bind def

/beginpage {	% i j npages
	/npages exch def
	/j exch def
	/i exch def
	/str 10 string def
	npages 1 gt {
		gsave
			coordfont setfont
			0 0 moveto
			(\() show i str cvs show (,) show j str cvs show (\)) show
		grestore
	} if
} bind def

/set_font {
	findfont exch
	scalefont setfont
} def

% draw text fitted to its expected width
/alignedtext {			% width text
	/text exch def
	/width exch def
	gsave
		width 0 gt {
			[] 0 setdash
			text stringwidth pop width exch sub text length div 0 text ashow
		} if
	grestore
} def

/boxprim {				% xcorner ycorner xsize ysize
		4 2 roll
		moveto
		2 copy
		exch 0 rlineto
		0 exch rlineto
		pop neg 0 rlineto
		closepath
} bind def

/ellipse_path {
	/ry exch def
	/rx exch def
	/y exch def
	/x exch def
	matrix currentmatrix
	newpath
	x y translate
	rx ry scale
	0 0 1 0 360 arc
	setmatrix
} bind def

/endpage { showpage } bind def
/showpage { } def

/layercolorseq
	[	% layer color sequence - darkest to lightest
		[0 0 0]
		[.2 .8 .8]
		[.4 .8 .8]
		[.6 .8 .8]
		[.8 .8 .8]
	]
def

/layerlen layercolorseq length def

/setlayer {/maxlayer exch def /curlayer exch def
	layercolorseq curlayer 1 sub layerlen mod get
	aload pop sethsbcolor
	/nodecolor {nopcolor} def
	/edgecolor {nopcolor} def
	/graphcolor {nopcolor} def
} bind def

/onlayer { curlayer ne {invis} if } def

/onlayers {
	/myupper exch def
	/mylower exch def
	curlayer mylower lt
	curlayer myupper gt
	or
	{invis} if
} def

/curlayer 0 def

%%EndResource
%%EndProlog
%%BeginSetup
14 default-font-family set_font
1 setmiterlimit
% /arrowlength 10 def
% /arrowwidth 5 def

% make sure pdfmark is harmless for PS-interpreters other than Distiller
/pdfmark where {pop} {userdict /pdfmark /cleartomark load put} ifelse
% make '<<' and '>>' safe on PS Level 1 devices
/languagelevel where {pop languagelevel}{1} ifelse
2 lt {
    userdict (<<) cvn ([) cvn load put
    userdict (>>) cvn ([) cvn load put
} if

%%EndSetup
setupLatin1
%%Page: 1 1
%%PageBoundingBox: 36 36 295 102
%%PageOrientation: Portrait
0 0 1 beginpage
gsave
36 36 259 66 boxprim clip newpath
1 1 set_scale 0 rotate 40 40 translate
% Node1
gsave
0 0 0.74902 nodecolor
newpath 0 14 moveto
0 44 lineto
97 44 lineto
97 14 lineto
closepath fill
1 setlinewidth
filled
0 0 0 nodecolor
newpath 0 14 moveto
0 44 lineto
97 44 lineto
97 14 lineto
closepath stroke
0 0 0 nodecolor
10 /Helvetica set_font
8 32 moveto 81 (ev3api::Bluetooth::) alignedtext
0 0 0 nodecolor
10 /Helvetica set_font
21 21 moveto 55 (isConnected) alignedtext
grestore
% Node2
gsave
[ /Rect [ 133 38 251 58 ]
  /Border [ 0 0 0 ]
  /Action << /Subtype /URI /URI ($classev3api_1_1_bluetooth.html#a6f7ccb457b77fbf3b2f3c2f36401f1ba) >>
  /Subtype /Link
/ANN pdfmark
0 0 1 nodecolor
newpath 133 38.5 moveto
133 57.5 lineto
251 57.5 lineto
251 38.5 lineto
closepath fill
1 setlinewidth
filled
0 0 0 nodecolor
newpath 133 38.5 moveto
133 57.5 lineto
251 57.5 lineto
251 38.5 lineto
closepath stroke
0 0 0 nodecolor
10 /Helvetica set_font
141 45.5 moveto 102 (ev3api::Bluetooth::send) alignedtext
grestore
% Node1->Node2
gsave
1 setlinewidth
solid
0.66667 0.77647 0.43922 edgecolor
newpath 107.16 36.74 moveto
115.62 37.88 124.33 39.05 132.8 40.19 curveto
stroke
0.66667 0.77647 0.43922 edgecolor
newpath 107.39 33.24 moveto
97.01 35.38 lineto
106.46 40.18 lineto
closepath fill
1 setlinewidth
solid
0.66667 0.77647 0.43922 edgecolor
newpath 107.39 33.24 moveto
97.01 35.38 lineto
106.46 40.18 lineto
closepath stroke
grestore
% Node3
gsave
[ /Rect [ 135 0 249 20 ]
  /Border [ 0 0 0 ]
  /Action << /Subtype /URI /URI ($classev3api_1_1_bluetooth.html#a615669e0748a22396b9089e8ceb2e9f4) >>
  /Subtype /Link
/ANN pdfmark
0 0 1 nodecolor
newpath 135 .5 moveto
135 19.5 lineto
249 19.5 lineto
249 .5 lineto
closepath fill
1 setlinewidth
filled
0 0 0 nodecolor
newpath 135 .5 moveto
135 19.5 lineto
249 19.5 lineto
249 .5 lineto
closepath stroke
0 0 0 nodecolor
10 /Helvetica set_font
143 7.5 moveto 98 (ev3api::Bluetooth::recv) alignedtext
grestore
% Node1->Node3
gsave
1 setlinewidth
solid
0.66667 0.77647 0.43922 edgecolor
newpath 107.08 21.27 moveto
116.15 20.05 125.51 18.79 134.55 17.58 curveto
stroke
0.66667 0.77647 0.43922 edgecolor
newpath 106.46 17.82 moveto
97.01 22.62 lineto
107.39 24.76 lineto
closepath fill
1 setlinewidth
solid
0.66667 0.77647 0.43922 edgecolor
newpath 106.46 17.82 moveto
97.01 22.62 lineto
107.39 24.76 lineto
closepath stroke
grestore
endpage
showpage
grestore
%%PageTrailer
%%EndPage: 1
%%Trailer
%%Pages: 1
%%BoundingBox: 36 36 295 102
end
restore
%%EOF
