\relax 
\providecommand\hyper@newdestlabel[2]{}
\providecommand\HyperFirstAtBeginDocument{\AtBeginDocument}
\HyperFirstAtBeginDocument{\ifx\hyper@anchor\@undefined
\global\let\oldcontentsline\contentsline
\gdef\contentsline#1#2#3#4{\oldcontentsline{#1}{#2}{#3}}
\global\let\oldnewlabel\newlabel
\gdef\newlabel#1#2{\newlabelxx{#1}#2}
\gdef\newlabelxx#1#2#3#4#5#6{\oldnewlabel{#1}{{#2}{#3}}}
\AtEndDocument{\ifx\hyper@anchor\@undefined
\let\contentsline\oldcontentsline
\let\newlabel\oldnewlabel
\fi}
\fi}
\global\let\hyper@last\relax 
\gdef\HyperFirstAtBeginDocument#1{#1}
\providecommand*\HyPL@Entry[1]{}
\HyPL@Entry{0<</S/r>>}
\providecommand \oddpage@label [2]{}
\HyPL@Entry{6<</S/D>>}
\@writefile{toc}{\contentsline {chapter}{\numberline {1}Namespace Index}{1}{chapter.1}}
\@writefile{lof}{\addvspace {10\p@ }}
\@writefile{lot}{\addvspace {10\p@ }}
\@writefile{toc}{\contentsline {section}{\numberline {1.1}Namespace List}{1}{section.1.1}}
\@writefile{toc}{\contentsline {chapter}{\numberline {2}Class Index}{3}{chapter.2}}
\@writefile{lof}{\addvspace {10\p@ }}
\@writefile{lot}{\addvspace {10\p@ }}
\@writefile{toc}{\contentsline {section}{\numberline {2.1}Class List}{3}{section.2.1}}
\@writefile{toc}{\contentsline {chapter}{\numberline {3}File Index}{5}{chapter.3}}
\@writefile{lof}{\addvspace {10\p@ }}
\@writefile{lot}{\addvspace {10\p@ }}
\@writefile{toc}{\contentsline {section}{\numberline {3.1}File List}{5}{section.3.1}}
\@writefile{toc}{\contentsline {chapter}{\numberline {4}Namespace Documentation}{7}{chapter.4}}
\@writefile{lof}{\addvspace {10\p@ }}
\@writefile{lot}{\addvspace {10\p@ }}
\@writefile{toc}{\contentsline {section}{\numberline {4.1}ev3api Namespace Reference}{7}{section.4.1}}
\newlabel{namespaceev3api}{{4.1}{7}{ev3api Namespace Reference}{section.4.1}{}}
\@writefile{toc}{\contentsline {chapter}{\numberline {5}Class Documentation}{9}{chapter.5}}
\@writefile{lof}{\addvspace {10\p@ }}
\@writefile{lot}{\addvspace {10\p@ }}
\@writefile{toc}{\contentsline {section}{\numberline {5.1}ev3api\discretionary {\unhbox \voidb@x \hbox {\relax \fontsize  {7}{8}\selectfont  $\leftarrow \joinrel  \rhook $}}{}{}:\discretionary {\unhbox \voidb@x \hbox {\relax \fontsize  {7}{8}\selectfont  $\leftarrow \joinrel  \rhook $}}{}{}:Bluetooth Class Reference}{9}{section.5.1}}
\newlabel{classev3api_1_1_bluetooth}{{5.1}{9}{ev3api\+:\+:Bluetooth Class Reference}{section.5.1}{}}
\@writefile{toc}{\contentsline {subsection}{\numberline {5.1.1}Detailed Description}{9}{subsection.5.1.1}}
\@writefile{toc}{\contentsline {subsection}{\numberline {5.1.2}Constructor \& Destructor Documentation}{9}{subsection.5.1.2}}
\@writefile{toc}{\contentsline {subsubsection}{\numberline {5.1.2.1}Bluetooth()}{9}{subsubsection.5.1.2.1}}
\newlabel{classev3api_1_1_bluetooth_adff22f9e5f2bd81b1fc5b8eeba71f68b}{{5.1.2.1}{9}{\texorpdfstring {Bluetooth()}{Bluetooth()}}{subsubsection.5.1.2.1}{}}
\gdef \LT@i {\LT@entry 
    {3}{17.29996pt}\LT@entry 
    {3}{50.88864pt}}
\@writefile{toc}{\contentsline {subsubsection}{\numberline {5.1.2.2}$\sim $\discretionary {\unhbox \voidb@x \hbox {\relax \fontsize  {7}{8}\selectfont  $\leftarrow \joinrel  \rhook $}}{}{}Bluetooth()}{10}{subsubsection.5.1.2.2}}
\newlabel{classev3api_1_1_bluetooth_aa1544a5f4cadcc689627a6c69031e583}{{5.1.2.2}{10}{\texorpdfstring {$\sim $\+Bluetooth()}{~Bluetooth()}}{subsubsection.5.1.2.2}{}}
\@writefile{toc}{\contentsline {subsection}{\numberline {5.1.3}Member Function Documentation}{10}{subsection.5.1.3}}
\@writefile{toc}{\contentsline {subsubsection}{\numberline {5.1.3.1}btgetc()}{10}{subsubsection.5.1.3.1}}
\newlabel{classev3api_1_1_bluetooth_ac2e08f1e7ff39e802f2c6ce1e3ed1874}{{5.1.3.1}{10}{\texorpdfstring {btgetc()}{btgetc()}}{subsubsection.5.1.3.1}{}}
\@writefile{toc}{\contentsline {subsubsection}{\numberline {5.1.3.2}btputc(char c)}{10}{subsubsection.5.1.3.2}}
\newlabel{classev3api_1_1_bluetooth_a27618d4948a6622a04b8b168a99eb5c1}{{5.1.3.2}{10}{\texorpdfstring {btputc(char c)}{btputc(char c)}}{subsubsection.5.1.3.2}{}}
\@writefile{toc}{\contentsline {subsubsection}{\numberline {5.1.3.3}get\discretionary {\unhbox \voidb@x \hbox {\relax \fontsize  {7}{8}\selectfont  $\leftarrow \joinrel  \rhook $}}{}{}Fp\discretionary {\unhbox \voidb@x \hbox {\relax \fontsize  {7}{8}\selectfont  $\leftarrow \joinrel  \rhook $}}{}{}B\discretionary {\unhbox \voidb@x \hbox {\relax \fontsize  {7}{8}\selectfont  $\leftarrow \joinrel  \rhook $}}{}{}T()}{10}{subsubsection.5.1.3.3}}
\newlabel{classev3api_1_1_bluetooth_a886a3beb09e82f1862b8968a519ae844}{{5.1.3.3}{10}{\texorpdfstring {get\+Fp\+B\+T()}{getFpBT()}}{subsubsection.5.1.3.3}{}}
\@writefile{toc}{\contentsline {subsubsection}{\numberline {5.1.3.4}is\discretionary {\unhbox \voidb@x \hbox {\relax \fontsize  {7}{8}\selectfont  $\leftarrow \joinrel  \rhook $}}{}{}Connected()}{10}{subsubsection.5.1.3.4}}
\newlabel{classev3api_1_1_bluetooth_a378f674a17b0bd1d0ae7bc674282b4a1}{{5.1.3.4}{10}{\texorpdfstring {is\+Connected()}{isConnected()}}{subsubsection.5.1.3.4}{}}
\gdef \LT@ii {\LT@entry 
    {3}{31.53767pt}\LT@entry 
    {3}{248.80957pt}}
\gdef \LT@iii {\LT@entry 
    {3}{28.66687pt}\LT@entry 
    {3}{108.62161pt}}
\gdef \LT@iv {\LT@entry 
    {3}{29.80077pt}\LT@entry 
    {3}{60.5108pt}}
\@writefile{toc}{\contentsline {subsubsection}{\numberline {5.1.3.5}recv(char $\ast $buf, int16\discretionary {\unhbox \voidb@x \hbox {\relax \fontsize  {7}{8}\selectfont  $\leftarrow \joinrel  \rhook $}}{}{}\_\discretionary {\unhbox \voidb@x \hbox {\relax \fontsize  {7}{8}\selectfont  $\leftarrow \joinrel  \rhook $}}{}{}t size)}{11}{subsubsection.5.1.3.5}}
\newlabel{classev3api_1_1_bluetooth_a615669e0748a22396b9089e8ceb2e9f4}{{5.1.3.5}{11}{\texorpdfstring {recv(char $\ast $buf, int16\+\_\+t size)}{recv(char *buf, int16_t size)}}{subsubsection.5.1.3.5}{}}
\@writefile{toc}{\contentsline {subsubsection}{\numberline {5.1.3.6}send(const char $\ast $msg)}{11}{subsubsection.5.1.3.6}}
\newlabel{classev3api_1_1_bluetooth_a6f7ccb457b77fbf3b2f3c2f36401f1ba}{{5.1.3.6}{11}{\texorpdfstring {send(const char $\ast $msg)}{send(const char *msg)}}{subsubsection.5.1.3.6}{}}
\@writefile{toc}{\contentsline {section}{\numberline {5.2}ev3api\discretionary {\unhbox \voidb@x \hbox {\relax \fontsize  {7}{8}\selectfont  $\leftarrow \joinrel  \rhook $}}{}{}:\discretionary {\unhbox \voidb@x \hbox {\relax \fontsize  {7}{8}\selectfont  $\leftarrow \joinrel  \rhook $}}{}{}:Button Class Reference}{12}{section.5.2}}
\newlabel{classev3api_1_1_button}{{5.2}{12}{ev3api\+:\+:Button Class Reference}{section.5.2}{}}
\@writefile{toc}{\contentsline {subsection}{\numberline {5.2.1}Detailed Description}{12}{subsection.5.2.1}}
\@writefile{toc}{\contentsline {subsection}{\numberline {5.2.2}Constructor \& Destructor Documentation}{12}{subsection.5.2.2}}
\@writefile{toc}{\contentsline {subsubsection}{\numberline {5.2.2.1}Button(button\discretionary {\unhbox \voidb@x \hbox {\relax \fontsize  {7}{8}\selectfont  $\leftarrow \joinrel  \rhook $}}{}{}\_\discretionary {\unhbox \voidb@x \hbox {\relax \fontsize  {7}{8}\selectfont  $\leftarrow \joinrel  \rhook $}}{}{}t button)}{12}{subsubsection.5.2.2.1}}
\newlabel{classev3api_1_1_button_a806221d556bf82ad6f871e2c19b34039}{{5.2.2.1}{12}{\texorpdfstring {Button(button\+\_\+t button)}{Button(button_t button)}}{subsubsection.5.2.2.1}{}}
\@writefile{toc}{\contentsline {subsubsection}{\numberline {5.2.2.2}$\sim $\discretionary {\unhbox \voidb@x \hbox {\relax \fontsize  {7}{8}\selectfont  $\leftarrow \joinrel  \rhook $}}{}{}Button()}{12}{subsubsection.5.2.2.2}}
\newlabel{classev3api_1_1_button_a2a001eb9c3cc8ae54768a850dd345002}{{5.2.2.2}{12}{\texorpdfstring {$\sim $\+Button()}{~Button()}}{subsubsection.5.2.2.2}{}}
\gdef \LT@v {\LT@entry 
    {3}{31.53767pt}\LT@entry 
    {3}{98.99945pt}}
\gdef \LT@vi {\LT@entry 
    {3}{42.8144pt}\LT@entry 
    {3}{325.51176pt}}
\gdef \LT@vii {\LT@entry 
    {3}{36.81152pt}\LT@entry 
    {3}{89.37729pt}}
\@writefile{toc}{\contentsline {subsection}{\numberline {5.2.3}Member Function Documentation}{13}{subsection.5.2.3}}
\@writefile{toc}{\contentsline {subsubsection}{\numberline {5.2.3.1}get\discretionary {\unhbox \voidb@x \hbox {\relax \fontsize  {7}{8}\selectfont  $\leftarrow \joinrel  \rhook $}}{}{}T\discretionary {\unhbox \voidb@x \hbox {\relax \fontsize  {7}{8}\selectfont  $\leftarrow \joinrel  \rhook $}}{}{}Num()}{13}{subsubsection.5.2.3.1}}
\newlabel{classev3api_1_1_button_aa527f2521feeb3f7e619949e8cf21788}{{5.2.3.1}{13}{\texorpdfstring {get\+T\+Num()}{getTNum()}}{subsubsection.5.2.3.1}{}}
\@writefile{toc}{\contentsline {subsubsection}{\numberline {5.2.3.2}is\discretionary {\unhbox \voidb@x \hbox {\relax \fontsize  {7}{8}\selectfont  $\leftarrow \joinrel  \rhook $}}{}{}Pressed()}{13}{subsubsection.5.2.3.2}}
\newlabel{classev3api_1_1_button_a15feeb9f71e66e8397d4213b1ced917b}{{5.2.3.2}{13}{\texorpdfstring {is\+Pressed()}{isPressed()}}{subsubsection.5.2.3.2}{}}
\@writefile{toc}{\contentsline {subsubsection}{\numberline {5.2.3.3}set\discretionary {\unhbox \voidb@x \hbox {\relax \fontsize  {7}{8}\selectfont  $\leftarrow \joinrel  \rhook $}}{}{}On\discretionary {\unhbox \voidb@x \hbox {\relax \fontsize  {7}{8}\selectfont  $\leftarrow \joinrel  \rhook $}}{}{}Clicked(\discretionary {\unhbox \voidb@x \hbox {\relax \fontsize  {7}{8}\selectfont  $\leftarrow \joinrel  \rhook $}}{}{}I\discretionary {\unhbox \voidb@x \hbox {\relax \fontsize  {7}{8}\selectfont  $\leftarrow \joinrel  \rhook $}}{}{}S\discretionary {\unhbox \voidb@x \hbox {\relax \fontsize  {7}{8}\selectfont  $\leftarrow \joinrel  \rhook $}}{}{}R handler, intptr\discretionary {\unhbox \voidb@x \hbox {\relax \fontsize  {7}{8}\selectfont  $\leftarrow \joinrel  \rhook $}}{}{}\_\discretionary {\unhbox \voidb@x \hbox {\relax \fontsize  {7}{8}\selectfont  $\leftarrow \joinrel  \rhook $}}{}{}t exinf)}{13}{subsubsection.5.2.3.3}}
\newlabel{classev3api_1_1_button_ada4a0f3d8a0cd345f32a68784f8638f3}{{5.2.3.3}{13}{\texorpdfstring {set\+On\+Clicked(\+I\+S\+R handler, intptr\+\_\+t exinf)}{setOnClicked(ISR handler, intptr_t exinf)}}{subsubsection.5.2.3.3}{}}
\@writefile{toc}{\contentsline {subsubsection}{\numberline {5.2.3.4}to\discretionary {\unhbox \voidb@x \hbox {\relax \fontsize  {7}{8}\selectfont  $\leftarrow \joinrel  \rhook $}}{}{}String()}{13}{subsubsection.5.2.3.4}}
\newlabel{classev3api_1_1_button_a60dcda647b9fc8f896b268677ac6058e}{{5.2.3.4}{13}{\texorpdfstring {to\+String()}{toString()}}{subsubsection.5.2.3.4}{}}
\gdef \LT@viii {\LT@entry 
    {3}{85.30295pt}\LT@entry 
    {3}{12.4pt}}
\@writefile{toc}{\contentsline {section}{\numberline {5.3}ev3api\discretionary {\unhbox \voidb@x \hbox {\relax \fontsize  {7}{8}\selectfont  $\leftarrow \joinrel  \rhook $}}{}{}:\discretionary {\unhbox \voidb@x \hbox {\relax \fontsize  {7}{8}\selectfont  $\leftarrow \joinrel  \rhook $}}{}{}:E\discretionary {\unhbox \voidb@x \hbox {\relax \fontsize  {7}{8}\selectfont  $\leftarrow \joinrel  \rhook $}}{}{}V3ext Class Reference}{14}{section.5.3}}
\newlabel{classev3api_1_1_e_v3ext}{{5.3}{14}{ev3api\+:\+:E\+V3ext Class Reference}{section.5.3}{}}
\@writefile{toc}{\contentsline {subsection}{\numberline {5.3.1}Detailed Description}{14}{subsection.5.3.1}}
\@writefile{toc}{\contentsline {subsection}{\numberline {5.3.2}Constructor \& Destructor Documentation}{14}{subsection.5.3.2}}
\@writefile{toc}{\contentsline {subsubsection}{\numberline {5.3.2.1}E\discretionary {\unhbox \voidb@x \hbox {\relax \fontsize  {7}{8}\selectfont  $\leftarrow \joinrel  \rhook $}}{}{}V3ext()}{14}{subsubsection.5.3.2.1}}
\newlabel{classev3api_1_1_e_v3ext_a41f7614f7d810b7b277cace764293490}{{5.3.2.1}{14}{\texorpdfstring {E\+V3ext()}{EV3ext()}}{subsubsection.5.3.2.1}{}}
\gdef \LT@ix {\LT@entry 
    {3}{32.30266pt}\LT@entry 
    {3}{99.66537pt}}
\gdef \LT@x {\LT@entry 
    {3}{42.31047pt}\LT@entry 
    {3}{70.13297pt}}
\@writefile{toc}{\contentsline {subsubsection}{\numberline {5.3.2.2}$\sim $\discretionary {\unhbox \voidb@x \hbox {\relax \fontsize  {7}{8}\selectfont  $\leftarrow \joinrel  \rhook $}}{}{}E\discretionary {\unhbox \voidb@x \hbox {\relax \fontsize  {7}{8}\selectfont  $\leftarrow \joinrel  \rhook $}}{}{}V3ext()}{15}{subsubsection.5.3.2.2}}
\newlabel{classev3api_1_1_e_v3ext_ab60838f05dc4c41d1841ef65462464b0}{{5.3.2.2}{15}{\texorpdfstring {$\sim $\+E\+V3ext()}{~EV3ext()}}{subsubsection.5.3.2.2}{}}
\@writefile{toc}{\contentsline {subsection}{\numberline {5.3.3}Member Function Documentation}{15}{subsection.5.3.3}}
\@writefile{toc}{\contentsline {subsubsection}{\numberline {5.3.3.1}get\discretionary {\unhbox \voidb@x \hbox {\relax \fontsize  {7}{8}\selectfont  $\leftarrow \joinrel  \rhook $}}{}{}Currentm\discretionary {\unhbox \voidb@x \hbox {\relax \fontsize  {7}{8}\selectfont  $\leftarrow \joinrel  \rhook $}}{}{}A()}{15}{subsubsection.5.3.3.1}}
\newlabel{classev3api_1_1_e_v3ext_ab871115663e86ee75ed28a00df878bb2}{{5.3.3.1}{15}{\texorpdfstring {get\+Currentm\+A()}{getCurrentmA()}}{subsubsection.5.3.3.1}{}}
\@writefile{toc}{\contentsline {subsubsection}{\numberline {5.3.3.2}get\discretionary {\unhbox \voidb@x \hbox {\relax \fontsize  {7}{8}\selectfont  $\leftarrow \joinrel  \rhook $}}{}{}Currentm\discretionary {\unhbox \voidb@x \hbox {\relax \fontsize  {7}{8}\selectfont  $\leftarrow \joinrel  \rhook $}}{}{}V()}{15}{subsubsection.5.3.3.2}}
\newlabel{classev3api_1_1_e_v3ext_ad679cbe78384603b12675cce56b8f7b8}{{5.3.3.2}{15}{\texorpdfstring {get\+Currentm\+V()}{getCurrentmV()}}{subsubsection.5.3.3.2}{}}
\@writefile{toc}{\contentsline {subsubsection}{\numberline {5.3.3.3}set\discretionary {\unhbox \voidb@x \hbox {\relax \fontsize  {7}{8}\selectfont  $\leftarrow \joinrel  \rhook $}}{}{}L\discretionary {\unhbox \voidb@x \hbox {\relax \fontsize  {7}{8}\selectfont  $\leftarrow \joinrel  \rhook $}}{}{}E\discretionary {\unhbox \voidb@x \hbox {\relax \fontsize  {7}{8}\selectfont  $\leftarrow \joinrel  \rhook $}}{}{}D\discretionary {\unhbox \voidb@x \hbox {\relax \fontsize  {7}{8}\selectfont  $\leftarrow \joinrel  \rhook $}}{}{}Color(ledcolor\discretionary {\unhbox \voidb@x \hbox {\relax \fontsize  {7}{8}\selectfont  $\leftarrow \joinrel  \rhook $}}{}{}\_\discretionary {\unhbox \voidb@x \hbox {\relax \fontsize  {7}{8}\selectfont  $\leftarrow \joinrel  \rhook $}}{}{}t color)}{15}{subsubsection.5.3.3.3}}
\newlabel{classev3api_1_1_e_v3ext_a0bbd75f33689289729925dd5558835a7}{{5.3.3.3}{15}{\texorpdfstring {set\+L\+E\+D\+Color(ledcolor\+\_\+t color)}{setLEDColor(ledcolor_t color)}}{subsubsection.5.3.3.3}{}}
\@writefile{toc}{\contentsline {section}{\numberline {5.4}ev3api\discretionary {\unhbox \voidb@x \hbox {\relax \fontsize  {7}{8}\selectfont  $\leftarrow \joinrel  \rhook $}}{}{}:\discretionary {\unhbox \voidb@x \hbox {\relax \fontsize  {7}{8}\selectfont  $\leftarrow \joinrel  \rhook $}}{}{}:L\discretionary {\unhbox \voidb@x \hbox {\relax \fontsize  {7}{8}\selectfont  $\leftarrow \joinrel  \rhook $}}{}{}CD Class Reference}{16}{section.5.4}}
\newlabel{classev3api_1_1_l_c_d}{{5.4}{16}{ev3api\+:\+:L\+CD Class Reference}{section.5.4}{}}
\@writefile{toc}{\contentsline {subsection}{\numberline {5.4.1}Detailed Description}{16}{subsection.5.4.1}}
\@writefile{toc}{\contentsline {subsection}{\numberline {5.4.2}Constructor \& Destructor Documentation}{16}{subsection.5.4.2}}
\@writefile{toc}{\contentsline {subsubsection}{\numberline {5.4.2.1}L\discretionary {\unhbox \voidb@x \hbox {\relax \fontsize  {7}{8}\selectfont  $\leftarrow \joinrel  \rhook $}}{}{}C\discretionary {\unhbox \voidb@x \hbox {\relax \fontsize  {7}{8}\selectfont  $\leftarrow \joinrel  \rhook $}}{}{}D()}{16}{subsubsection.5.4.2.1}}
\newlabel{classev3api_1_1_l_c_d_a00bb2db1390721abc7b24ac4b8c276c8}{{5.4.2.1}{16}{\texorpdfstring {L\+C\+D()}{LCD()}}{subsubsection.5.4.2.1}{}}
\gdef \LT@xi {\LT@entry 
    {3}{37.30656pt}\LT@entry 
    {3}{127.86594pt}}
\@writefile{toc}{\contentsline {subsubsection}{\numberline {5.4.2.2}$\sim $\discretionary {\unhbox \voidb@x \hbox {\relax \fontsize  {7}{8}\selectfont  $\leftarrow \joinrel  \rhook $}}{}{}L\discretionary {\unhbox \voidb@x \hbox {\relax \fontsize  {7}{8}\selectfont  $\leftarrow \joinrel  \rhook $}}{}{}C\discretionary {\unhbox \voidb@x \hbox {\relax \fontsize  {7}{8}\selectfont  $\leftarrow \joinrel  \rhook $}}{}{}D()}{17}{subsubsection.5.4.2.2}}
\newlabel{classev3api_1_1_l_c_d_a5ac2667d164486b73b35dce3fd76bd95}{{5.4.2.2}{17}{\texorpdfstring {$\sim $\+L\+C\+D()}{~LCD()}}{subsubsection.5.4.2.2}{}}
\@writefile{toc}{\contentsline {subsection}{\numberline {5.4.3}Member Function Documentation}{17}{subsection.5.4.3}}
\@writefile{toc}{\contentsline {subsubsection}{\numberline {5.4.3.1}clear()}{17}{subsubsection.5.4.3.1}}
\newlabel{classev3api_1_1_l_c_d_afa699e0beeeee03cce8cef87eba81c4a}{{5.4.3.1}{17}{\texorpdfstring {clear()}{clear()}}{subsubsection.5.4.3.1}{}}
\@writefile{toc}{\contentsline {subsubsection}{\numberline {5.4.3.2}draw\discretionary {\unhbox \voidb@x \hbox {\relax \fontsize  {7}{8}\selectfont  $\leftarrow \joinrel  \rhook $}}{}{}Image(const image\discretionary {\unhbox \voidb@x \hbox {\relax \fontsize  {7}{8}\selectfont  $\leftarrow \joinrel  \rhook $}}{}{}\_\discretionary {\unhbox \voidb@x \hbox {\relax \fontsize  {7}{8}\selectfont  $\leftarrow \joinrel  \rhook $}}{}{}t $\ast $image, int32\discretionary {\unhbox \voidb@x \hbox {\relax \fontsize  {7}{8}\selectfont  $\leftarrow \joinrel  \rhook $}}{}{}\_\discretionary {\unhbox \voidb@x \hbox {\relax \fontsize  {7}{8}\selectfont  $\leftarrow \joinrel  \rhook $}}{}{}t x, int32\discretionary {\unhbox \voidb@x \hbox {\relax \fontsize  {7}{8}\selectfont  $\leftarrow \joinrel  \rhook $}}{}{}\_\discretionary {\unhbox \voidb@x \hbox {\relax \fontsize  {7}{8}\selectfont  $\leftarrow \joinrel  \rhook $}}{}{}t y)}{17}{subsubsection.5.4.3.2}}
\newlabel{classev3api_1_1_l_c_d_acf006ccba6f736b22f830c30bce4858e}{{5.4.3.2}{17}{\texorpdfstring {draw\+Image(const image\+\_\+t $\ast $image, int32\+\_\+t x, int32\+\_\+t y)}{drawImage(const image_t *image, int32_t x, int32_t y)}}{subsubsection.5.4.3.2}{}}
\@writefile{toc}{\contentsline {subsubsection}{\numberline {5.4.3.3}draw\discretionary {\unhbox \voidb@x \hbox {\relax \fontsize  {7}{8}\selectfont  $\leftarrow \joinrel  \rhook $}}{}{}Line(int32\discretionary {\unhbox \voidb@x \hbox {\relax \fontsize  {7}{8}\selectfont  $\leftarrow \joinrel  \rhook $}}{}{}\_\discretionary {\unhbox \voidb@x \hbox {\relax \fontsize  {7}{8}\selectfont  $\leftarrow \joinrel  \rhook $}}{}{}t x0, int32\discretionary {\unhbox \voidb@x \hbox {\relax \fontsize  {7}{8}\selectfont  $\leftarrow \joinrel  \rhook $}}{}{}\_\discretionary {\unhbox \voidb@x \hbox {\relax \fontsize  {7}{8}\selectfont  $\leftarrow \joinrel  \rhook $}}{}{}t y0, int32\discretionary {\unhbox \voidb@x \hbox {\relax \fontsize  {7}{8}\selectfont  $\leftarrow \joinrel  \rhook $}}{}{}\_\discretionary {\unhbox \voidb@x \hbox {\relax \fontsize  {7}{8}\selectfont  $\leftarrow \joinrel  \rhook $}}{}{}t x1, int32\discretionary {\unhbox \voidb@x \hbox {\relax \fontsize  {7}{8}\selectfont  $\leftarrow \joinrel  \rhook $}}{}{}\_\discretionary {\unhbox \voidb@x \hbox {\relax \fontsize  {7}{8}\selectfont  $\leftarrow \joinrel  \rhook $}}{}{}t y1)}{17}{subsubsection.5.4.3.3}}
\newlabel{classev3api_1_1_l_c_d_a360166988bd20377d37283499ccba3da}{{5.4.3.3}{17}{\texorpdfstring {draw\+Line(int32\+\_\+t x0, int32\+\_\+t y0, int32\+\_\+t x1, int32\+\_\+t y1)}{drawLine(int32_t x0, int32_t y0, int32_t x1, int32_t y1)}}{subsubsection.5.4.3.3}{}}
\gdef \LT@xii {\LT@entry 
    {3}{22.30386pt}\LT@entry 
    {3}{108.62161pt}}
\gdef \LT@xiii {\LT@entry 
    {3}{36.81152pt}\LT@entry 
    {3}{50.88864pt}}
\gdef \LT@xiv {\LT@entry 
    {3}{51.81422pt}\LT@entry 
    {3}{203.09935pt}}
\gdef \LT@xv {\LT@entry 
    {3}{32.30266pt}\LT@entry 
    {3}{118.24377pt}}
\@writefile{toc}{\contentsline {subsubsection}{\numberline {5.4.3.4}draw\discretionary {\unhbox \voidb@x \hbox {\relax \fontsize  {7}{8}\selectfont  $\leftarrow \joinrel  \rhook $}}{}{}String(const char $\ast $str, int32\discretionary {\unhbox \voidb@x \hbox {\relax \fontsize  {7}{8}\selectfont  $\leftarrow \joinrel  \rhook $}}{}{}\_\discretionary {\unhbox \voidb@x \hbox {\relax \fontsize  {7}{8}\selectfont  $\leftarrow \joinrel  \rhook $}}{}{}t x, int32\discretionary {\unhbox \voidb@x \hbox {\relax \fontsize  {7}{8}\selectfont  $\leftarrow \joinrel  \rhook $}}{}{}\_\discretionary {\unhbox \voidb@x \hbox {\relax \fontsize  {7}{8}\selectfont  $\leftarrow \joinrel  \rhook $}}{}{}t y, bool\discretionary {\unhbox \voidb@x \hbox {\relax \fontsize  {7}{8}\selectfont  $\leftarrow \joinrel  \rhook $}}{}{}\_\discretionary {\unhbox \voidb@x \hbox {\relax \fontsize  {7}{8}\selectfont  $\leftarrow \joinrel  \rhook $}}{}{}t auto\discretionary {\unhbox \voidb@x \hbox {\relax \fontsize  {7}{8}\selectfont  $\leftarrow \joinrel  \rhook $}}{}{}Clear=true)}{18}{subsubsection.5.4.3.4}}
\newlabel{classev3api_1_1_l_c_d_ab078c32288138acbc6de38a03d63fe76}{{5.4.3.4}{18}{\texorpdfstring {draw\+String(const char $\ast $str, int32\+\_\+t x, int32\+\_\+t y, bool\+\_\+t auto\+Clear=true)}{drawString(const char *str, int32_t x, int32_t y, bool_t autoClear=true)}}{subsubsection.5.4.3.4}{}}
\@writefile{toc}{\contentsline {subsubsection}{\numberline {5.4.3.5}fill\discretionary {\unhbox \voidb@x \hbox {\relax \fontsize  {7}{8}\selectfont  $\leftarrow \joinrel  \rhook $}}{}{}Rect(int32\discretionary {\unhbox \voidb@x \hbox {\relax \fontsize  {7}{8}\selectfont  $\leftarrow \joinrel  \rhook $}}{}{}\_\discretionary {\unhbox \voidb@x \hbox {\relax \fontsize  {7}{8}\selectfont  $\leftarrow \joinrel  \rhook $}}{}{}t x, int32\discretionary {\unhbox \voidb@x \hbox {\relax \fontsize  {7}{8}\selectfont  $\leftarrow \joinrel  \rhook $}}{}{}\_\discretionary {\unhbox \voidb@x \hbox {\relax \fontsize  {7}{8}\selectfont  $\leftarrow \joinrel  \rhook $}}{}{}t y, int32\discretionary {\unhbox \voidb@x \hbox {\relax \fontsize  {7}{8}\selectfont  $\leftarrow \joinrel  \rhook $}}{}{}\_\discretionary {\unhbox \voidb@x \hbox {\relax \fontsize  {7}{8}\selectfont  $\leftarrow \joinrel  \rhook $}}{}{}t w, int32\discretionary {\unhbox \voidb@x \hbox {\relax \fontsize  {7}{8}\selectfont  $\leftarrow \joinrel  \rhook $}}{}{}\_\discretionary {\unhbox \voidb@x \hbox {\relax \fontsize  {7}{8}\selectfont  $\leftarrow \joinrel  \rhook $}}{}{}t h, lcdcolor\discretionary {\unhbox \voidb@x \hbox {\relax \fontsize  {7}{8}\selectfont  $\leftarrow \joinrel  \rhook $}}{}{}\_\discretionary {\unhbox \voidb@x \hbox {\relax \fontsize  {7}{8}\selectfont  $\leftarrow \joinrel  \rhook $}}{}{}t color)}{18}{subsubsection.5.4.3.5}}
\newlabel{classev3api_1_1_l_c_d_af9306497394388fe97beadb540fceed9}{{5.4.3.5}{18}{\texorpdfstring {fill\+Rect(int32\+\_\+t x, int32\+\_\+t y, int32\+\_\+t w, int32\+\_\+t h, lcdcolor\+\_\+t color)}{fillRect(int32_t x, int32_t y, int32_t w, int32_t h, lcdcolor_t color)}}{subsubsection.5.4.3.5}{}}
\gdef \LT@xvi {\LT@entry 
    {3}{36.81152pt}\LT@entry 
    {3}{50.88864pt}}
\gdef \LT@xvii {\LT@entry 
    {3}{37.30656pt}\LT@entry 
    {3}{185.5989pt}}
\gdef \LT@xviii {\LT@entry 
    {3}{42.31047pt}\LT@entry 
    {3}{72.03429pt}}
\@writefile{toc}{\contentsline {subsubsection}{\numberline {5.4.3.6}free\discretionary {\unhbox \voidb@x \hbox {\relax \fontsize  {7}{8}\selectfont  $\leftarrow \joinrel  \rhook $}}{}{}Image(image\discretionary {\unhbox \voidb@x \hbox {\relax \fontsize  {7}{8}\selectfont  $\leftarrow \joinrel  \rhook $}}{}{}\_\discretionary {\unhbox \voidb@x \hbox {\relax \fontsize  {7}{8}\selectfont  $\leftarrow \joinrel  \rhook $}}{}{}t $\ast $image)}{19}{subsubsection.5.4.3.6}}
\newlabel{classev3api_1_1_l_c_d_aa1a3f61fb9a34c1b37220ae88a084145}{{5.4.3.6}{19}{\texorpdfstring {free\+Image(image\+\_\+t $\ast $image)}{freeImage(image_t *image)}}{subsubsection.5.4.3.6}{}}
\@writefile{toc}{\contentsline {subsubsection}{\numberline {5.4.3.7}get\discretionary {\unhbox \voidb@x \hbox {\relax \fontsize  {7}{8}\selectfont  $\leftarrow \joinrel  \rhook $}}{}{}Current\discretionary {\unhbox \voidb@x \hbox {\relax \fontsize  {7}{8}\selectfont  $\leftarrow \joinrel  \rhook $}}{}{}Font\discretionary {\unhbox \voidb@x \hbox {\relax \fontsize  {7}{8}\selectfont  $\leftarrow \joinrel  \rhook $}}{}{}Height()}{19}{subsubsection.5.4.3.7}}
\newlabel{classev3api_1_1_l_c_d_a5d0b51b5f5c4ad1ca052059df3f9db6a}{{5.4.3.7}{19}{\texorpdfstring {get\+Current\+Font\+Height()}{getCurrentFontHeight()}}{subsubsection.5.4.3.7}{}}
\@writefile{toc}{\contentsline {subsubsection}{\numberline {5.4.3.8}get\discretionary {\unhbox \voidb@x \hbox {\relax \fontsize  {7}{8}\selectfont  $\leftarrow \joinrel  \rhook $}}{}{}Current\discretionary {\unhbox \voidb@x \hbox {\relax \fontsize  {7}{8}\selectfont  $\leftarrow \joinrel  \rhook $}}{}{}Font\discretionary {\unhbox \voidb@x \hbox {\relax \fontsize  {7}{8}\selectfont  $\leftarrow \joinrel  \rhook $}}{}{}Width()}{19}{subsubsection.5.4.3.8}}
\newlabel{classev3api_1_1_l_c_d_a07abc38fff7e9d05ce1668b762799d03}{{5.4.3.8}{19}{\texorpdfstring {get\+Current\+Font\+Width()}{getCurrentFontWidth()}}{subsubsection.5.4.3.8}{}}
\gdef \LT@xix {\LT@entry 
    {3}{37.31546pt}\LT@entry 
    {3}{367.05606pt}}
\gdef \LT@xx {\LT@entry 
    {3}{36.81152pt}\LT@entry 
    {3}{62.29399pt}}
\@writefile{toc}{\contentsline {subsubsection}{\numberline {5.4.3.9}get\discretionary {\unhbox \voidb@x \hbox {\relax \fontsize  {7}{8}\selectfont  $\leftarrow \joinrel  \rhook $}}{}{}Font\discretionary {\unhbox \voidb@x \hbox {\relax \fontsize  {7}{8}\selectfont  $\leftarrow \joinrel  \rhook $}}{}{}Size(lcdfont\discretionary {\unhbox \voidb@x \hbox {\relax \fontsize  {7}{8}\selectfont  $\leftarrow \joinrel  \rhook $}}{}{}\_\discretionary {\unhbox \voidb@x \hbox {\relax \fontsize  {7}{8}\selectfont  $\leftarrow \joinrel  \rhook $}}{}{}t font, int32\discretionary {\unhbox \voidb@x \hbox {\relax \fontsize  {7}{8}\selectfont  $\leftarrow \joinrel  \rhook $}}{}{}\_\discretionary {\unhbox \voidb@x \hbox {\relax \fontsize  {7}{8}\selectfont  $\leftarrow \joinrel  \rhook $}}{}{}t $\ast $width, int32\discretionary {\unhbox \voidb@x \hbox {\relax \fontsize  {7}{8}\selectfont  $\leftarrow \joinrel  \rhook $}}{}{}\_\discretionary {\unhbox \voidb@x \hbox {\relax \fontsize  {7}{8}\selectfont  $\leftarrow \joinrel  \rhook $}}{}{}t $\ast $height)}{20}{subsubsection.5.4.3.9}}
\newlabel{classev3api_1_1_l_c_d_a02170469c3df52bb845d072ed8fcd14a}{{5.4.3.9}{20}{\texorpdfstring {get\+Font\+Size(lcdfont\+\_\+t font, int32\+\_\+t $\ast $width, int32\+\_\+t $\ast $height)}{getFontSize(lcdfont_t font, int32_t *width, int32_t *height)}}{subsubsection.5.4.3.9}{}}
\@writefile{toc}{\contentsline {subsubsection}{\numberline {5.4.3.10}get\discretionary {\unhbox \voidb@x \hbox {\relax \fontsize  {7}{8}\selectfont  $\leftarrow \joinrel  \rhook $}}{}{}Height()}{20}{subsubsection.5.4.3.10}}
\newlabel{classev3api_1_1_l_c_d_a70df3bb2b4b3e4b2acb22763aebf120e}{{5.4.3.10}{20}{\texorpdfstring {get\+Height()}{getHeight()}}{subsubsection.5.4.3.10}{}}
\@writefile{toc}{\contentsline {subsubsection}{\numberline {5.4.3.11}get\discretionary {\unhbox \voidb@x \hbox {\relax \fontsize  {7}{8}\selectfont  $\leftarrow \joinrel  \rhook $}}{}{}Width()}{20}{subsubsection.5.4.3.11}}
\newlabel{classev3api_1_1_l_c_d_a6adce1b54ceb329c32b81fd7fe8082bb}{{5.4.3.11}{20}{\texorpdfstring {get\+Width()}{getWidth()}}{subsubsection.5.4.3.11}{}}
\@writefile{toc}{\contentsline {subsubsection}{\numberline {5.4.3.12}load\discretionary {\unhbox \voidb@x \hbox {\relax \fontsize  {7}{8}\selectfont  $\leftarrow \joinrel  \rhook $}}{}{}Image(const memfile\discretionary {\unhbox \voidb@x \hbox {\relax \fontsize  {7}{8}\selectfont  $\leftarrow \joinrel  \rhook $}}{}{}\_\discretionary {\unhbox \voidb@x \hbox {\relax \fontsize  {7}{8}\selectfont  $\leftarrow \joinrel  \rhook $}}{}{}t $\ast $memfile, image\discretionary {\unhbox \voidb@x \hbox {\relax \fontsize  {7}{8}\selectfont  $\leftarrow \joinrel  \rhook $}}{}{}\_\discretionary {\unhbox \voidb@x \hbox {\relax \fontsize  {7}{8}\selectfont  $\leftarrow \joinrel  \rhook $}}{}{}t $\ast $image)}{21}{subsubsection.5.4.3.12}}
\newlabel{classev3api_1_1_l_c_d_a8d0da0faf693e4b86547074d41089da5}{{5.4.3.12}{21}{\texorpdfstring {load\+Image(const memfile\+\_\+t $\ast $memfile, image\+\_\+t $\ast $image)}{loadImage(const memfile_t *memfile, image_t *image)}}{subsubsection.5.4.3.12}{}}
\gdef \LT@xxi {\LT@entry 
    {3}{44.29953pt}\LT@entry 
    {3}{262.5762pt}}
\gdef \LT@xxii {\LT@entry 
    {3}{58.30325pt}\LT@entry 
    {3}{137.4881pt}}
\gdef \LT@xxiii {\LT@entry 
    {3}{27.54164pt}\LT@entry 
    {3}{79.75513pt}}
\gdef \LT@xxiv {\LT@entry 
    {3}{36.81152pt}\LT@entry 
    {3}{62.29399pt}}
\@writefile{toc}{\contentsline {subsubsection}{\numberline {5.4.3.13}set\discretionary {\unhbox \voidb@x \hbox {\relax \fontsize  {7}{8}\selectfont  $\leftarrow \joinrel  \rhook $}}{}{}Font(lcdfont\discretionary {\unhbox \voidb@x \hbox {\relax \fontsize  {7}{8}\selectfont  $\leftarrow \joinrel  \rhook $}}{}{}\_\discretionary {\unhbox \voidb@x \hbox {\relax \fontsize  {7}{8}\selectfont  $\leftarrow \joinrel  \rhook $}}{}{}t font)}{22}{subsubsection.5.4.3.13}}
\newlabel{classev3api_1_1_l_c_d_acc4a0d6e6bf50b83fb8e0f5d76a72237}{{5.4.3.13}{22}{\texorpdfstring {set\+Font(lcdfont\+\_\+t font)}{setFont(lcdfont_t font)}}{subsubsection.5.4.3.13}{}}
\@writefile{toc}{\contentsline {section}{\numberline {5.5}ev3api\discretionary {\unhbox \voidb@x \hbox {\relax \fontsize  {7}{8}\selectfont  $\leftarrow \joinrel  \rhook $}}{}{}:\discretionary {\unhbox \voidb@x \hbox {\relax \fontsize  {7}{8}\selectfont  $\leftarrow \joinrel  \rhook $}}{}{}:Speaker Class Reference}{22}{section.5.5}}
\newlabel{classev3api_1_1_speaker}{{5.5}{22}{ev3api\+:\+:Speaker Class Reference}{section.5.5}{}}
\gdef \LT@xxv {\LT@entry 
    {3}{45.2263pt}\LT@entry 
    {3}{410.0178pt}}
\gdef \LT@xxvi {\LT@entry 
    {3}{55.81026pt}\LT@entry 
    {3}{166.35458pt}}
\@writefile{toc}{\contentsline {subsection}{\numberline {5.5.1}Detailed Description}{23}{subsection.5.5.1}}
\@writefile{toc}{\contentsline {subsection}{\numberline {5.5.2}Constructor \& Destructor Documentation}{23}{subsection.5.5.2}}
\@writefile{toc}{\contentsline {subsubsection}{\numberline {5.5.2.1}Speaker()}{23}{subsubsection.5.5.2.1}}
\newlabel{classev3api_1_1_speaker_a1c2d1c8e9f72e0c0cd21e22ad7e8fe5b}{{5.5.2.1}{23}{\texorpdfstring {Speaker()}{Speaker()}}{subsubsection.5.5.2.1}{}}
\@writefile{toc}{\contentsline {subsubsection}{\numberline {5.5.2.2}$\sim $\discretionary {\unhbox \voidb@x \hbox {\relax \fontsize  {7}{8}\selectfont  $\leftarrow \joinrel  \rhook $}}{}{}Speaker()}{23}{subsubsection.5.5.2.2}}
\newlabel{classev3api_1_1_speaker_a4fbf603df58d79c0db48cf1a672a5acb}{{5.5.2.2}{23}{\texorpdfstring {$\sim $\+Speaker()}{~Speaker()}}{subsubsection.5.5.2.2}{}}
\@writefile{toc}{\contentsline {subsection}{\numberline {5.5.3}Member Function Documentation}{23}{subsection.5.5.3}}
\@writefile{toc}{\contentsline {subsubsection}{\numberline {5.5.3.1}play\discretionary {\unhbox \voidb@x \hbox {\relax \fontsize  {7}{8}\selectfont  $\leftarrow \joinrel  \rhook $}}{}{}File(const memfile\discretionary {\unhbox \voidb@x \hbox {\relax \fontsize  {7}{8}\selectfont  $\leftarrow \joinrel  \rhook $}}{}{}\_\discretionary {\unhbox \voidb@x \hbox {\relax \fontsize  {7}{8}\selectfont  $\leftarrow \joinrel  \rhook $}}{}{}t $\ast $memfile, int32\discretionary {\unhbox \voidb@x \hbox {\relax \fontsize  {7}{8}\selectfont  $\leftarrow \joinrel  \rhook $}}{}{}\_\discretionary {\unhbox \voidb@x \hbox {\relax \fontsize  {7}{8}\selectfont  $\leftarrow \joinrel  \rhook $}}{}{}t duration)}{23}{subsubsection.5.5.3.1}}
\newlabel{classev3api_1_1_speaker_aa8189c23887dcc6001ef71d252f6d3d6}{{5.5.3.1}{23}{\texorpdfstring {play\+File(const memfile\+\_\+t $\ast $memfile, int32\+\_\+t duration)}{playFile(const memfile_t *memfile, int32_t duration)}}{subsubsection.5.5.3.1}{}}
\gdef \LT@xxvii {\LT@entry 
    {3}{52.31828pt}\LT@entry 
    {3}{401.9002pt}}
\gdef \LT@xxviii {\LT@entry 
    {3}{55.81026pt}\LT@entry 
    {3}{166.35458pt}}
\gdef \LT@xxix {\LT@entry 
    {3}{41.58153pt}\LT@entry 
    {3}{413.66258pt}}
\gdef \LT@xxx {\LT@entry 
    {3}{55.81026pt}\LT@entry 
    {3}{166.35458pt}}
\gdef \LT@xxxi {\LT@entry 
    {3}{55.81026pt}\LT@entry 
    {3}{166.35458pt}}
\@writefile{toc}{\contentsline {subsubsection}{\numberline {5.5.3.2}play\discretionary {\unhbox \voidb@x \hbox {\relax \fontsize  {7}{8}\selectfont  $\leftarrow \joinrel  \rhook $}}{}{}Tone(uint16\discretionary {\unhbox \voidb@x \hbox {\relax \fontsize  {7}{8}\selectfont  $\leftarrow \joinrel  \rhook $}}{}{}\_\discretionary {\unhbox \voidb@x \hbox {\relax \fontsize  {7}{8}\selectfont  $\leftarrow \joinrel  \rhook $}}{}{}t frequency, int32\discretionary {\unhbox \voidb@x \hbox {\relax \fontsize  {7}{8}\selectfont  $\leftarrow \joinrel  \rhook $}}{}{}\_\discretionary {\unhbox \voidb@x \hbox {\relax \fontsize  {7}{8}\selectfont  $\leftarrow \joinrel  \rhook $}}{}{}t duration)}{24}{subsubsection.5.5.3.2}}
\newlabel{classev3api_1_1_speaker_a8bc2d9580b2dd1e9f7193385af1d3557}{{5.5.3.2}{24}{\texorpdfstring {play\+Tone(uint16\+\_\+t frequency, int32\+\_\+t duration)}{playTone(uint16_t frequency, int32_t duration)}}{subsubsection.5.5.3.2}{}}
\@writefile{toc}{\contentsline {subsubsection}{\numberline {5.5.3.3}set\discretionary {\unhbox \voidb@x \hbox {\relax \fontsize  {7}{8}\selectfont  $\leftarrow \joinrel  \rhook $}}{}{}Volume(uint8\discretionary {\unhbox \voidb@x \hbox {\relax \fontsize  {7}{8}\selectfont  $\leftarrow \joinrel  \rhook $}}{}{}\_\discretionary {\unhbox \voidb@x \hbox {\relax \fontsize  {7}{8}\selectfont  $\leftarrow \joinrel  \rhook $}}{}{}t volume)}{24}{subsubsection.5.5.3.3}}
\newlabel{classev3api_1_1_speaker_a2c5468337d26c6bee156d7f0d10905e7}{{5.5.3.3}{24}{\texorpdfstring {set\+Volume(uint8\+\_\+t volume)}{setVolume(uint8_t volume)}}{subsubsection.5.5.3.3}{}}
\@writefile{toc}{\contentsline {subsubsection}{\numberline {5.5.3.4}stop()}{24}{subsubsection.5.5.3.4}}
\newlabel{classev3api_1_1_speaker_a102f95bba2022050e2c6f515b5ed1c0e}{{5.5.3.4}{24}{\texorpdfstring {stop()}{stop()}}{subsubsection.5.5.3.4}{}}
\@writefile{toc}{\contentsline {chapter}{\numberline {6}File Documentation}{27}{chapter.6}}
\@writefile{lof}{\addvspace {10\p@ }}
\@writefile{lot}{\addvspace {10\p@ }}
\@writefile{toc}{\contentsline {section}{\numberline {6.1}C\discretionary {\unhbox \voidb@x \hbox {\relax \fontsize  {7}{8}\selectfont  $\leftarrow \joinrel  \rhook $}}{}{}:/git/ev3rt/sdk/common/library/libcpp-\/ev3ext/include/\discretionary {\unhbox \voidb@x \hbox {\relax \fontsize  {7}{8}\selectfont  $\leftarrow \joinrel  \rhook $}}{}{}Bluetooth.h File Reference}{27}{section.6.1}}
\newlabel{_bluetooth_8h}{{6.1}{27}{C\+:/git/ev3rt/sdk/common/library/libcpp-\/ev3ext/include/\+Bluetooth.h File Reference}{section.6.1}{}}
\@writefile{toc}{\contentsline {section}{\numberline {6.2}C\discretionary {\unhbox \voidb@x \hbox {\relax \fontsize  {7}{8}\selectfont  $\leftarrow \joinrel  \rhook $}}{}{}:/git/ev3rt/sdk/common/library/libcpp-\/ev3ext/include/\discretionary {\unhbox \voidb@x \hbox {\relax \fontsize  {7}{8}\selectfont  $\leftarrow \joinrel  \rhook $}}{}{}Button.h File Reference}{28}{section.6.2}}
\newlabel{_button_8h}{{6.2}{28}{C\+:/git/ev3rt/sdk/common/library/libcpp-\/ev3ext/include/\+Button.h File Reference}{section.6.2}{}}
\@writefile{toc}{\contentsline {section}{\numberline {6.3}C\discretionary {\unhbox \voidb@x \hbox {\relax \fontsize  {7}{8}\selectfont  $\leftarrow \joinrel  \rhook $}}{}{}:/git/ev3rt/sdk/common/library/libcpp-\/ev3ext/include/\discretionary {\unhbox \voidb@x \hbox {\relax \fontsize  {7}{8}\selectfont  $\leftarrow \joinrel  \rhook $}}{}{}E\discretionary {\unhbox \voidb@x \hbox {\relax \fontsize  {7}{8}\selectfont  $\leftarrow \joinrel  \rhook $}}{}{}V3ext.h File Reference}{29}{section.6.3}}
\newlabel{_e_v3ext_8h}{{6.3}{29}{C\+:/git/ev3rt/sdk/common/library/libcpp-\/ev3ext/include/\+E\+V3ext.h File Reference}{section.6.3}{}}
\@writefile{toc}{\contentsline {section}{\numberline {6.4}C\discretionary {\unhbox \voidb@x \hbox {\relax \fontsize  {7}{8}\selectfont  $\leftarrow \joinrel  \rhook $}}{}{}:/git/ev3rt/sdk/common/library/libcpp-\/ev3ext/include/\discretionary {\unhbox \voidb@x \hbox {\relax \fontsize  {7}{8}\selectfont  $\leftarrow \joinrel  \rhook $}}{}{}L\discretionary {\unhbox \voidb@x \hbox {\relax \fontsize  {7}{8}\selectfont  $\leftarrow \joinrel  \rhook $}}{}{}CD.h File Reference}{29}{section.6.4}}
\newlabel{_l_c_d_8h}{{6.4}{29}{C\+:/git/ev3rt/sdk/common/library/libcpp-\/ev3ext/include/\+L\+CD.h File Reference}{section.6.4}{}}
\@writefile{toc}{\contentsline {section}{\numberline {6.5}C\discretionary {\unhbox \voidb@x \hbox {\relax \fontsize  {7}{8}\selectfont  $\leftarrow \joinrel  \rhook $}}{}{}:/git/ev3rt/sdk/common/library/libcpp-\/ev3ext/include/\discretionary {\unhbox \voidb@x \hbox {\relax \fontsize  {7}{8}\selectfont  $\leftarrow \joinrel  \rhook $}}{}{}Speaker.h File Reference}{30}{section.6.5}}
\newlabel{_speaker_8h}{{6.5}{30}{C\+:/git/ev3rt/sdk/common/library/libcpp-\/ev3ext/include/\+Speaker.h File Reference}{section.6.5}{}}
\@writefile{toc}{\contentsline {section}{\numberline {6.6}C\discretionary {\unhbox \voidb@x \hbox {\relax \fontsize  {7}{8}\selectfont  $\leftarrow \joinrel  \rhook $}}{}{}:/git/ev3rt/sdk/common/library/libcpp-\/ev3ext/src/\discretionary {\unhbox \voidb@x \hbox {\relax \fontsize  {7}{8}\selectfont  $\leftarrow \joinrel  \rhook $}}{}{}Bluetooth.cpp File Reference}{31}{section.6.6}}
\newlabel{_bluetooth_8cpp}{{6.6}{31}{C\+:/git/ev3rt/sdk/common/library/libcpp-\/ev3ext/src/\+Bluetooth.cpp File Reference}{section.6.6}{}}
\@writefile{toc}{\contentsline {section}{\numberline {6.7}C\discretionary {\unhbox \voidb@x \hbox {\relax \fontsize  {7}{8}\selectfont  $\leftarrow \joinrel  \rhook $}}{}{}:/git/ev3rt/sdk/common/library/libcpp-\/ev3ext/src/\discretionary {\unhbox \voidb@x \hbox {\relax \fontsize  {7}{8}\selectfont  $\leftarrow \joinrel  \rhook $}}{}{}Button.cpp File Reference}{32}{section.6.7}}
\newlabel{_button_8cpp}{{6.7}{32}{C\+:/git/ev3rt/sdk/common/library/libcpp-\/ev3ext/src/\+Button.cpp File Reference}{section.6.7}{}}
\@writefile{toc}{\contentsline {section}{\numberline {6.8}C\discretionary {\unhbox \voidb@x \hbox {\relax \fontsize  {7}{8}\selectfont  $\leftarrow \joinrel  \rhook $}}{}{}:/git/ev3rt/sdk/common/library/libcpp-\/ev3ext/src/\discretionary {\unhbox \voidb@x \hbox {\relax \fontsize  {7}{8}\selectfont  $\leftarrow \joinrel  \rhook $}}{}{}E\discretionary {\unhbox \voidb@x \hbox {\relax \fontsize  {7}{8}\selectfont  $\leftarrow \joinrel  \rhook $}}{}{}V3ext.cpp File Reference}{32}{section.6.8}}
\newlabel{_e_v3ext_8cpp}{{6.8}{32}{C\+:/git/ev3rt/sdk/common/library/libcpp-\/ev3ext/src/\+E\+V3ext.cpp File Reference}{section.6.8}{}}
\@writefile{toc}{\contentsline {section}{\numberline {6.9}C\discretionary {\unhbox \voidb@x \hbox {\relax \fontsize  {7}{8}\selectfont  $\leftarrow \joinrel  \rhook $}}{}{}:/git/ev3rt/sdk/common/library/libcpp-\/ev3ext/src/\discretionary {\unhbox \voidb@x \hbox {\relax \fontsize  {7}{8}\selectfont  $\leftarrow \joinrel  \rhook $}}{}{}L\discretionary {\unhbox \voidb@x \hbox {\relax \fontsize  {7}{8}\selectfont  $\leftarrow \joinrel  \rhook $}}{}{}CD.cpp File Reference}{33}{section.6.9}}
\newlabel{_l_c_d_8cpp}{{6.9}{33}{C\+:/git/ev3rt/sdk/common/library/libcpp-\/ev3ext/src/\+L\+CD.cpp File Reference}{section.6.9}{}}
\@writefile{toc}{\contentsline {section}{\numberline {6.10}C\discretionary {\unhbox \voidb@x \hbox {\relax \fontsize  {7}{8}\selectfont  $\leftarrow \joinrel  \rhook $}}{}{}:/git/ev3rt/sdk/common/library/libcpp-\/ev3ext/src/\discretionary {\unhbox \voidb@x \hbox {\relax \fontsize  {7}{8}\selectfont  $\leftarrow \joinrel  \rhook $}}{}{}Speaker.cpp File Reference}{33}{section.6.10}}
\newlabel{_speaker_8cpp}{{6.10}{33}{C\+:/git/ev3rt/sdk/common/library/libcpp-\/ev3ext/src/\+Speaker.cpp File Reference}{section.6.10}{}}
\@writefile{toc}{\contentsline {chapter}{Index}{35}{section*.40}}
